COMSOL Simulations • picoinjector
…
Read the COMSOL file

d <- readr::read_table("data/comsol/01_tubing_line_integration_spfU.txt", skip = 1, col_names = c("radius", "length", "pressure", "flowrate"))
#> 
#> ── Column specification ────────────────────────────────────────────────────────
#> cols(
#>   radius = col_double(),
#>   length = col_double(),
#>   pressure = col_double(),
#>   flowrate = col_double()
#> )
d
#> # A tibble: 45 × 4
#>    radius length pressure flowrate
#>     <dbl>  <dbl>    <dbl>    <dbl>
#>  1   0.15     10     1000  0.00197
#>  2   0.15     10     5000  0.00985
#>  3   0.15     10    10000  0.0197 
#>  4   0.15     10    50000  0.0982 
#>  5   0.15     10   100000  0.197  
#>  6   0.15     20     1000  0.00100
#>  7   0.15     20     5000  0.00500
#>  8   0.15     20    10000  0.00997
#>  9   0.15     20    50000  0.0494 
#> 10   0.15     20   100000  0.0977 
#> # … with 35 more rows
…
Simulation 02: Flow in Tygon tubing of different lengths at different
pressures:

d <- readr::read_table("data/comsol/02_tubing_tygon_parametric_sweep.txt", skip = 1, col_names = c("length", "pressure", "flowrate"))
#> 
#> ── Column specification ────────────────────────────────────────────────────────
#> cols(
#>   length = col_double(),
#>   pressure = col_double(),
#>   flowrate = col_double()
#> )
d
#> # A tibble: 50 × 3
#>    length pressure flowrate
#>     <dbl>    <dbl>    <dbl>
#>  1     10      0.1     583.
#>  2     10      0.2    1166.
#>  3     10      0.3    1748.
#>  4     10      0.4    2330.
#>  5     10      0.5    2907.
#>  6     10      0.6    3497.
#>  7     10      0.7    4051.
#>  8     10      0.8    4618 
#>  9     10      0.9    5216.
#> 10     10      1      5694.
#> # … with 40 more rows
…
