Volume Estimates • picoinjector
…
# everything in m
radiusTygon <- 0.508e-3 / 2
radiusPTFE <- 0.8e-3 / 2

Plot the tubing volume as a function of tubing length for lengths up
to 1 meter:

volumes <- tibble::tibble("length" = seq(1,1000)) %>% 
  dplyr::mutate(length = length * 1e-3) %>% # convert into mm
  dplyr::mutate(v_tygon = getCylinderVolume(radiusTygon, length),
                v_ptfe = getCylinderVolume(radiusPTFE, length)) %>%
  tidyr::pivot_longer(c(v_tygon, v_ptfe), names_to = "type", values_to = "volume")
volumes
#> # A tibble: 2,000 × 3
#>    length type      volume
#>     <dbl> <chr>      <dbl>
#>  1  0.001 v_tygon 2.03e-10
#>  2  0.001 v_ptfe  5.03e-10
#>  3  0.002 v_tygon 4.05e-10
#>  4  0.002 v_ptfe  1.01e- 9
#>  5  0.003 v_tygon 6.08e-10
#>  6  0.003 v_ptfe  1.51e- 9
#>  7  0.004 v_tygon 8.11e-10
#>  8  0.004 v_ptfe  2.01e- 9
#>  9  0.005 v_tygon 1.01e- 9
#> 10  0.005 v_ptfe  2.51e- 9
#> # … with 1,990 more rows
…
