Droplet Image Analysis • picoinjector
…
TODO:

filter very dark bf rois (-> spacer beads)

Format

dwide <- drops %>% 
  dplyr::select(c(-perim, -feret_x, -feret_y, -feret_angle, -feret_min)) %>% 
  tidyr::pivot_wider(names_from = channel, values_from = c(mean, sd, min, max))
dwide
#> # A tibble: 5,982 × 22
#>    nd_file     roi_id series  area feret incub…¹ mean_BF mean_…² mean_…³ mean_…⁴
#>    <chr>       <chr>  <chr>  <dbl> <dbl> <time>    <dbl>   <dbl>   <dbl>   <dbl>
#>  1 overnight_… ID 08… serie…  687.  30.3 02:10    27979.    136.    271.   5063.
#>  2 overnight_… ID 08… serie…  746.  31.7 02:10    28425.    138.    243.    698.
#>  3 overnight_… ID 07… serie…  815.  33.1 02:10    26027.    163.    273.   4468.
#>  4 overnight_… ID 03… serie…  882.  34.4 02:10    27168.    150.    331.   5889.
#>  5 overnight_… ID 00… serie…  746.  31.7 02:10    29070.    150.    376.   8862.
#>  6 overnight_… ID 07… serie…  631.  29.2 02:10    27732.    140.    326.   7097.
#>  7 overnight_… ID 08… serie…  687.  30.3 02:10    28408.    161.    354.   5980.
#>  8 overnight_… ID 07… serie…  815.  33.1 02:10    27030.    143.    337.    855.
#>  9 overnight_… ID 07… serie…  951.  35.6 02:10    28530.    184.    309.   5286.
#> 10 overnight_… ID 06… serie…  746.  31.7 02:10    27539.    158.    349.    856.
#> # … with 5,972 more rows, 12 more variables: sd_BF <dbl>, sd_RFP <dbl>,
#> #   sd_CFP <dbl>, sd_GFP <dbl>, min_BF <dbl>, min_RFP <dbl>, min_CFP <dbl>,
#> #   min_GFP <dbl>, max_BF <dbl>, max_RFP <dbl>, max_CFP <dbl>, max_GFP <dbl>,
#> #   and abbreviated variable names ¹​incubation, ²​mean_RFP, ³​mean_CFP, ⁴​mean_GFP
…
