Electrical Engineering • picoinjector
…
      electrical_engineering.Rmd

Voltage amplifier output measurement

library(picoinjector)
library(readr)
library(dplyr)
library(ggplot2)

Read in data:

d <- read_csv("data/boexle_sorter_output.csv", show_col_types = FALSE)
d
#> # A tibble: 40 × 5
#>    channel frequency input_vpp output_vpp output_dc_average
#>      <dbl>     <dbl>     <dbl>      <dbl>             <dbl>
#>  1       2        50       2.5       130.             -0.13
#>  2       2        50       5         260.             -0.08
#>  3       2        50       7.5       389.              0.21
#>  4       2        50      10         518.              0.33
#>  5       2        50      12.5       646.              0.35
#>  6       2       500       2.5       130.             -0.22
#>  7       2       500       5         259.             -0.18
#>  8       2       500       7.5       389.              0.12
#>  9       2       500      10         518.              0.23
#> 10       2       500      12.5       646.              0.21
#> # … with 30 more rows
…
