FADS-based Picoinjector Characterization • picoinjector
…
Single-droplet level

Load the TSV data. Each row corresponds to a droplet. Droplet
populations resulting from 34 different parameter combinations were
collected. I exclude file Signal_29 because picoinjection
didn’t work well for those parameters.

greenAll <- fads_read_all("data/fads/230126/", "_barcode.txt$") %>% 
  dplyr::filter(file != "Signal_29") 
redAll <- fads_read_all("data/fads/230126/", "_injected.txt$") %>% 
  dplyr::filter(file != "Signal_29") 
greenAll
#> # A tibble: 2,651,225 × 11
#>    t_start   t_max   t_end voltage   width spacing    area injec…¹    id occup…²
#>      <dbl>   <dbl>   <dbl>   <dbl>   <dbl>   <dbl>   <dbl>   <dbl> <dbl>   <dbl>
#>  1 0.00288 0.00361 0.00422 0.00600 0.00133 0.00314 5.82e-6       0     1       0
#>  2 0.00736 0.00816 0.00926 0.0108  0.0019  0.00218 1.22e-5       1     2       1
#>  3 0.0114  0.0122  0.0128  0.00634 0.00133 0.00192 6.21e-6       0     3       0
#>  4 0.0147  0.0154  0.0160  0.00652 0.00132 0.00140 6.23e-6       0     4       0
#>  5 0.0174  0.0182  0.0187  0.00701 0.00127 0.00164 6.25e-6       1     5       1
#>  6 0.0203  0.0210  0.0216  0.00674 0.00130 0.0014  6.27e-6       1     6       1
#>  7 0.0230  0.0238  0.0244  0.00680 0.00132 0.00194 6.48e-6       1     7       1
#>  8 0.0263  0.0270  0.0276  0.00662 0.00128 0.00140 6.09e-6       1     8       1
#>  9 0.0290  0.0297  0.0302  0.00704 0.00123 0.00203 6.21e-6       1     9       1
#> 10 0.0322  0.0329  0.0335  0.00631 0.00128 0.00154 5.68e-6       1    10       1
#> # … with 2,651,215 more rows, 1 more variable: file <chr>, and abbreviated
#> #   variable names ¹​injected, ²​occupancy

The information for which times the AC field was on/off, as well as
pressures and flow rates are stored in a metadata text file:

metadata <- readr::read_table("data/fads/230126/metadata.txt", show_col_types = FALSE)
metadata
#> # A tibble: 34 × 9
#>    file     q_oil p_water q_emulsion ac_v_pp ac_frequency t_off video    laser…¹
#>    <chr>    <dbl>   <dbl>      <dbl>   <dbl>        <dbl> <dbl> <chr>      <dbl>
#>  1 Signal_0   150     125         25       5           50 103.  2023012…       1
#>  2 Signal_1   150     115         25       5           50  95.3 2023012…       1
#>  3 Signal_2   150     105         25       5           50  85.9 2023012…       1
#>  4 Signal_3   150      95         25       5           50 112.  2023012…       1
#>  5 Signal_4   150      85         25       5           50  99.4 2023012…       1
#>  6 Signal_5   150     130         25       5           50  91.9 2023012…       2
#>  7 Signal_6   150     140         25       5           50  65.2 2023012…       2
#>  8 Signal_7   300     120         50       5           50  42.4 2023012…       2
#>  9 Signal_8   300     130         50       5           50  51.2 2023012…       2
#> 10 Signal_9   300     140         50       5           50  27.3 2023012…       2
#> # … with 24 more rows, and abbreviated variable name ¹​laser_focus
…
Furthermore, by knowing the droplet velocity, I can go transform the
signal width, which is a period of time, into an actual spatial width in
units of length. To that end, I have to multiply the peak width by the
droplet velocity to get the spatial length of the droplet.

grn <- grn %>% 
  dplyr::mutate("width_um" = width * velocity * 1e6)
red <- red %>% 
  dplyr::mutate("width_um" = width * velocity * 1e6)
grn %>% 
  dplyr::select(file, q_emulsion, q_oil, p_water, ac_field, width , width_um)
#> # A tibble: 2,651,225 × 7
#>    file     q_emulsion q_oil p_water ac_field   width width_um
#>    <chr>         <dbl> <dbl>   <dbl> <lgl>      <dbl>    <dbl>
#>  1 Signal_0         25   150     125 TRUE     0.00133    108. 
#>  2 Signal_0         25   150     125 TRUE     0.0019     154. 
#>  3 Signal_0         25   150     125 TRUE     0.00133    108. 
#>  4 Signal_0         25   150     125 TRUE     0.00132    107. 
#>  5 Signal_0         25   150     125 TRUE     0.00127    103. 
#>  6 Signal_0         25   150     125 TRUE     0.00130    105. 
#>  7 Signal_0         25   150     125 TRUE     0.00132    107. 
#>  8 Signal_0         25   150     125 TRUE     0.00128    103. 
#>  9 Signal_0         25   150     125 TRUE     0.00123     99.7
#> 10 Signal_0         25   150     125 TRUE     0.00128    104. 
#> # … with 2,651,215 more rows
…
These calculated widths/diameters represent a flow rate normalization,
therefore, the uninjected (i.e. field OFF) droplet populations should
now all have the same width_um value, regardless of the
flow rate. That is, if no measurement artifacts become important when
scaling up the flow rates.

grn %>% 
  filter(ac_field == FALSE) %>%
  group_by(file, ac_field) %>% 
  summarise(median_width = median(width_um)) %>% 
  mutate("corresponding_sphere_diameter" = sapply(median_width, squeezed_length_to_diameter, 20, 30)) %>% 
  arrange(median_width)
#> `summarise()` has grouped output by 'file'. You can override using the
#> `.groups` argument.
#> # A tibble: 33 × 4
#> # Groups:   file [33]
#>    file      ac_field median_width corresponding_sphere_diameter
#>    <chr>     <lgl>           <dbl>                         <dbl>
#>  1 Signal_4  FALSE            55.1                          34.8
#>  2 Signal_3  FALSE            60.4                          36.0
#>  3 Signal_2  FALSE            62.8                          36.6
#>  4 Signal_1  FALSE            65.6                          37.2
#>  5 Signal_0  FALSE            67.2                          37.6
#>  6 Signal_24 FALSE            68.3                          37.8
#>  7 Signal_6  FALSE            70.1                          38.2
#>  8 Signal_26 FALSE            70.5                          38.3
#>  9 Signal_21 FALSE            70.6                          38.3
#> 10 Signal_20 FALSE            71.8                          38.5
#> # … with 23 more rows
…
I find: frequency [Hz] = q_emulsion [µl/h] * 12.05 + 21.72. I neglect
the offset.

grnSummary %>% 
  dplyr::mutate("width_um" = width_mean * velocity * 1e6) %>% 
  dplyr::select(file, q_emulsion, q_oil, p_water, ac_field, width_mean, width_um) %>% 
  dplyr::mutate("width_um" = sapply(width_um, squeezed_length_to_diameter, 20, 30))
#> # A tibble: 66 × 7
#>    file      q_emulsion q_oil p_water ac_field width_mean width_um
#>    <chr>          <dbl> <dbl>   <dbl> <lgl>         <dbl>    <dbl>
#>  1 Signal_0          25   150     125 FALSE      0.000839     37.7
#>  2 Signal_0          25   150     125 TRUE       0.00120      43.1
#>  3 Signal_1          25   150     115 FALSE      0.000830     37.6
#>  4 Signal_1          25   150     115 TRUE       0.00112      42.0
#>  5 Signal_10         50   300     150 FALSE      0.000483     39.8
#>  6 Signal_10         50   300     150 TRUE       0.000612     43.4
#>  7 Signal_11         50   300     160 FALSE      0.000484     39.8
#>  8 Signal_11         50   300     160 TRUE       0.000601     43.1
#>  9 Signal_12         50   300     170 FALSE      0.000472     39.4
#> 10 Signal_12         50   300     170 TRUE       0.000607     43.3
#> # … with 56 more rows
…
# add metadata
kymographDrops <- kymographDrops %>% 
  dplyr::rename(c("video" = "file")) %>% 
  dplyr::left_join(
    readr::read_table("data/fads/230126/metadata.txt", show_col_types = FALSE),
    by = "video"
  )
 kymographDrops
#> # A tibble: 1,769 × 14
#>    slice  left right width intensity video   file  q_oil p_water q_emu…¹ ac_v_pp
#>    <dbl> <dbl> <dbl> <dbl>     <dbl> <chr>   <chr> <dbl>   <dbl>   <dbl>   <dbl>
#>  1     5  16.5  58.3  41.7      325. 202301… Sign…   150     125      25       5
#>  2    13  41.7  82.2  40.4      308. 202301… Sign…   150     125      25       5
#>  3    32  16.1  57.8  41.7      326. 202301… Sign…   150     125      25       5
#>  4    39  41.7  82.2  40.4      321. 202301… Sign…   150     125      25       5
#>  5    46  16.5  57.8  41.3      320. 202301… Sign…   150     125      25       5
#>  6    53  41.7  82.2  40.4      316. 202301… Sign…   150     125      25       5
#>  7    59  15.2  57.0  41.7      329. 202301… Sign…   150     125      25       5
#>  8    67  41.7  82.2  40.4      311. 202301… Sign…   150     125      25       5
#>  9    87  14.3  55.2  40.9      322. 202301… Sign…   150     125      25       5
#> 10    94  41.7  82.2  40.4      312. 202301… Sign…   150     125      25       5
#> # … with 1,759 more rows, 3 more variables: ac_frequency <dbl>, t_off <dbl>,
#> #   laser_focus <dbl>, and abbreviated variable name ¹​q_emulsion
…
