FADS Analysis • picoinjector
…
TSV file

Using the LabVIEW software, a TSV file can be recorded during an
experiment, where every row corresponds to a droplet that is recognized
by the sorter. For a droplet flowing across the focus spot to be
recognized, the signal captured by the PMT has to exceed a defined
threshold in terms of amplitude and duration. This way, droplets can be
distinguished from the background signal.

fads <- fads_read_tsv("data/fads/220916/pi30v4_0.txt")
fads
#> # A tibble: 43,950 × 6
#>           time  blue green   red width spacing
#>          <dbl> <dbl> <dbl> <dbl> <dbl>   <dbl>
#>  1 3631845945.     0 0.222 1.13   3.18    9.09
#>  2 3631846023.     0 0.218 0.943  2.62   13.3 
#>  3 3631846070.     0 0.218 0.872  2.29    7.3 
#>  4 3631846129.     0 0.238 0.963  2.90   10.1 
#>  5 3631846181.     0 0.237 0.914  2.64    8.05
#>  6 3631846254.     0 0.234 0.935  2.85   12.7 
#>  7 3631846297.     0 0.228 0.941  2.80    6.32
#>  8 3631846383.     0 0.229 0.902  2.68   15.5 
#>  9 3631846415.     0 0.227 0.883  2.52    4.04
#> 10 3631846502.     0 0.227 1.10   3.30   15.8 
#> # … with 43,940 more rows
…
