Fluid Flow • picoinjector
…
getHydraulicResistance <- function(mu, length, radius) {
  return(8 * mu * length / pi / radius^4)
}

Plot hydraulic resistance over tubing length:

resistance <- tibble::tibble("length" = seq(1,1000) * 1e-3, # unit: meters
               "tygon" = getHydraulicResistance(muWater, length, radiusTygon),
               "ptfe" = getHydraulicResistance(muWater, length, radiusPTFE)) %>% 
  tidyr::pivot_longer(!length, names_to = "type", values_to = "r_hydraulic")
resistance
#> # A tibble: 2,000 × 3
#>    length type  r_hydraulic
#>     <dbl> <chr>       <dbl>
#>  1  0.001 tygon  544496703.
#>  2  0.001 ptfe    88529937.
#>  3  0.002 tygon 1088993406.
#>  4  0.002 ptfe   177059874.
#>  5  0.003 tygon 1633490109.
#>  6  0.003 ptfe   265589811.
#>  7  0.004 tygon 2177986812.
#>  8  0.004 ptfe   354119748.
#>  9  0.005 tygon 2722483515.
#> 10  0.005 ptfe   442649685.
#> # … with 1,990 more rows
…
