Log Files • picoinjector
…
Plot

syringe pump

The Cetoni syringe pump log file can be loaded using the convenience
function logfile_read_syringepump. This reads the CSV file
and formats the columns a little bit.

(This function works only for a particular configuration of the log
file in the Cetoni Elements software.)

syringe <- logfile_read_syringepump("data/logfiles/syringe_pump_log_20220805_150634.csv")
syringe
#> # A tibble: 149,607 × 4
#>    elapsed_time timestamp               channel flowrate
#>           <dbl> <dttm>                  <chr>      <dbl>
#>  1          0   2022-08-05 15:06:34.569 q1            10
#>  2          0   2022-08-05 15:06:34.569 q2            10
#>  3          0   2022-08-05 15:06:34.569 q3             0
#>  4          0.1 2022-08-05 15:06:34.669 q1            10
#>  5          0.1 2022-08-05 15:06:34.669 q2            10
#>  6          0.1 2022-08-05 15:06:34.669 q3             0
#>  7          0.2 2022-08-05 15:06:34.769 q1            10
#>  8          0.2 2022-08-05 15:06:34.769 q2            10
#>  9          0.2 2022-08-05 15:06:34.769 q3             0
#> 10          0.3 2022-08-05 15:06:34.868 q1            10
#> # … with 149,597 more rows
…
pressure controller

A drawback of the pressure controller log files is, that the system
time is not stored. Therefore, we need to align the pressure profile
with the syringe pump profile in order to get that information.

pressure <- logfile_read_pressure("data/logfiles/pressure_log.txt")
pressure
#> # A tibble: 394,856 × 4
#>    elapsed_time channel value    mbar
#>           <dbl> <chr>   <chr>   <dbl>
#>  1          0   p1      target  0    
#>  2          0   p1      read    0.612
#>  3          0   p2      target 50    
#>  4          0   p2      read   50.0  
#>  5          0   p3      target  0    
#>  6          0   p3      read    0.970
#>  7          0   p4      target  0    
#>  8          0   p4      read    0.833
#>  9          0.1 p1      target  0    
#> 10          0.1 p1      read    0.605
#> # … with 394,846 more rows
…
align profiles

What are the times where pressure and syringe pump logs should be
aligned?

tPressure <- 4862.1
tSyringe <- 4904.6

Align pressure log to syringe pump log:

pressureAligned <- logfile_align_pressure(pressure, syringe, tPressure, tSyringe)
pressureAligned
#> # A tibble: 394,856 × 5
#>    elapsed_time timestamp               channel value    mbar
#>           <dbl> <dttm>                  <chr>   <chr>   <dbl>
#>  1         42.5 2022-08-05 15:07:17.069 p1      target  0    
#>  2         42.5 2022-08-05 15:07:17.069 p1      read    0.612
#>  3         42.5 2022-08-05 15:07:17.069 p2      target 50    
#>  4         42.5 2022-08-05 15:07:17.069 p2      read   50.0  
#>  5         42.5 2022-08-05 15:07:17.069 p3      target  0    
#>  6         42.5 2022-08-05 15:07:17.069 p3      read    0.970
#>  7         42.5 2022-08-05 15:07:17.069 p4      target  0    
#>  8         42.5 2022-08-05 15:07:17.069 p4      read    0.833
#>  9         42.6 2022-08-05 15:07:17.168 p1      target  0    
#> 10         42.6 2022-08-05 15:07:17.168 p1      read    0.605
#> # … with 394,846 more rows
…
