Spincurve Analysis • masterthesis
…
Read in all the csv files and concatenate them into a single tibble
dataframe:

results <- tibble()
for (f in files) {
  d <- read_csv(f, skip = 19, show_col_types = FALSE, col_names = c("position", "height")) %>% 
    select(position, height) %>% 
    mutate(id = basename(f)) # add the wafer id
  results <- bind_rows(results, d)
}
results
#> # A tibble: 2,815,001 × 3
#>    position height id                     
#>       <dbl>  <dbl> <chr>                  
#>  1      0     1.85 00_job9945_eastwest.csv
#>  2      0.5   1.22 00_job9945_eastwest.csv
#>  3      1     0.59 00_job9945_eastwest.csv
#>  4      1.5   0    00_job9945_eastwest.csv
#>  5      2    -0.51 00_job9945_eastwest.csv
#>  6      2.5  -0.95 00_job9945_eastwest.csv
#>  7      3    -1.32 00_job9945_eastwest.csv
#>  8      3.5  -1.63 00_job9945_eastwest.csv
#>  9      4    -1.88 00_job9945_eastwest.csv
#> 10      4.5  -2.08 00_job9945_eastwest.csv
#> # … with 2,814,991 more rows
…
results <- results %>% 
  mutate(wafer = str_extract(id, "job\\d+"),
         direction = str_extract(id, "[a-z]+\\.") %>% 
           str_remove("\\."),
         orientation = case_when(direction %in% c("eastwest", "westeast") ~ "horizontal",
                                 TRUE ~ "vertical"),
         rpm = rpm[wafer],
         spintime = spinTime[wafer]) %>% 
  # order rows by wafer, direction and position
  group_by(rpm, spintime, direction) %>% 
  arrange(rpm, spintime, .by_group = TRUE) %>% 
  ungroup()
results
#> # A tibble: 2,815,001 × 8
#>    position height id                 wafer direction orientation   rpm spintime
#>       <dbl>  <dbl> <chr>              <chr> <chr>     <chr>       <dbl>    <dbl>
#>  1      0     1.85 00_job9945_eastwe… job9… eastwest  horizontal   3000       30
#>  2      0.5   1.22 00_job9945_eastwe… job9… eastwest  horizontal   3000       30
#>  3      1     0.59 00_job9945_eastwe… job9… eastwest  horizontal   3000       30
#>  4      1.5   0    00_job9945_eastwe… job9… eastwest  horizontal   3000       30
#>  5      2    -0.51 00_job9945_eastwe… job9… eastwest  horizontal   3000       30
#>  6      2.5  -0.95 00_job9945_eastwe… job9… eastwest  horizontal   3000       30
#>  7      3    -1.32 00_job9945_eastwe… job9… eastwest  horizontal   3000       30
#>  8      3.5  -1.63 00_job9945_eastwe… job9… eastwest  horizontal   3000       30
#>  9      4    -1.88 00_job9945_eastwe… job9… eastwest  horizontal   3000       30
#> 10      4.5  -2.08 00_job9945_eastwe… job9… eastwest  horizontal   3000       30
#> # … with 2,814,991 more rows
…
