Thesis Plots • picoinjector
…
grDevices::pdf(file = "output/plots/02_poisson_distribution.pdf", width = textwidth, height = textwidth/2, )
print(last_plot())
grDevices::dev.off()
#> agg_png 
#>       2

4 Results

fads <- fads_read_tsv("data/fads/220916/pi30v4_6.txt")
fads
#> # A tibble: 413,790 × 6
#>           time  blue  green   red width spacing
#>          <dbl> <dbl>  <dbl> <dbl> <dbl>   <dbl>
#>  1 3647025511.     0 0.0961 0.723 0.32    0.915
#>  2 3647025516.     0 0.0958 0.763 0.37    0.665
#>  3 3647025520.     0 0.125  0.772 0.37    0.495
#>  4 3647025522.     0 0.357  0.759 0.355   0.025
#>  5 3647025526.     0 0.101  0.748 0.345   0.255
#>  6 3647025530.     0 0.0995 0.714 0.285   0.585
#>  7 3647025534.     0 0.0967 0.730 0.33    0.41 
#>  8 3647025538.     0 0.0946 0.763 0.4     0.435
#>  9 3647025543.     0 0.0958 0.752 0.355   0.695
#> 10 3647025547.     0 0.0977 0.769 0.405   0.415
#> # … with 413,780 more rows
…
