Volumes and Concentrations • picoinjector
…
Plot the tubing volume as a function of tubing length for lengths up
to 1 meter:

volumes <- tibble::tibble("length" = seq(1,1000)) %>% 
  dplyr::mutate(length = length * 1e-3) %>% # convert into mm
  dplyr::mutate(v_tygon = getCylinderVolume(radiusTygon, length),
                v_ptfe_large = getCylinderVolume(radiusPTFE1, length),
                v_ptfe_small = getCylinderVolume(radiusPTFE2, length)) %>%
  tidyr::pivot_longer(!length, names_to = "type", values_to = "volume")
volumes
#> # A tibble: 3,000 × 3
#>    length type           volume
#>     <dbl> <chr>           <dbl>
#>  1  0.001 v_tygon      2.03e-10
#>  2  0.001 v_ptfe_large 5.03e-10
#>  3  0.001 v_ptfe_small 7.07e-11
#>  4  0.002 v_tygon      4.05e-10
#>  5  0.002 v_ptfe_large 1.01e- 9
#>  6  0.002 v_ptfe_small 1.41e-10
#>  7  0.003 v_tygon      6.08e-10
#>  8  0.003 v_ptfe_large 1.51e- 9
#>  9  0.003 v_ptfe_small 2.12e-10
#> 10  0.004 v_tygon      8.11e-10
#> # … with 2,990 more rows
…
